dplyr
…
---

## Summarise and Group_by

```r
french_fries %>%
    group_by(time, treatment) %>%
    summarise(mean_rancid = mean(rancid), 
              sd_rancid = sd(rancid))
```

```
## # A tibble: 30 x 4
## # Groups:   time [?]
##     time treatment mean_rancid sd_rancid
##    <int>     <int>       <dbl>     <dbl>
##  1     1         1        2.76      3.21
##  2     1         2        1.72      2.71
##  3     1         3        2.60      3.20
##  4     2         1        3.90      4.37
##  5     2         2        2.14      3.12
##  6     2         3        2.50      3.38
##  7     3         1        4.65      3.93
##  8     3         2        2.90      3.77
##  9     3         3        3.60      3.59
## 10     4         1        2.08      2.39
## # ... with 20 more rows
```
…
---

## Are replicates similar?

```r
reps <- french_fries %>% 
  group_by(time, subject, treatment) %>%
  summarise(potato_diff = diff(potato),
            potato = mean(potato))

reps
```

```
## # A tibble: 348 x 5
## # Groups:   time, subject [?]
##     time subject treatment potato_diff potato
##    <int>   <int>     <int>       <dbl>  <dbl>
##  1     1       3         1      11.1     8.45
##  2     1       3         2      -0.500  13.6 
##  3     1       3         3      -4.60   11.8 
##  4     1      10         1      -1.10   10.4 
##  5     1      10         2       1.70   10.2 
##  6     1      10         3      -1.20   10.7 
##  7     1      15         1       7.60    5.00
##  8     1      15         2      -2.00    8.00
##  9     1      15         3       2.20    6.90
## 10     1      16         1      -0.800   8.60
## # ... with 338 more rows
```
…
